{
    "author": "Garblon, Ravage656", 
    "category": "kart", 
    "description": "Originating from Mario Kart DS as Toad's special Kart, then given an HD makeover in Mario Kart Tour, The Mushmellow returns! Credit to KillzXGaming for tools", 
    "license": "CC", 
    "title": "Mushmellow over Landship", 
    "url": "https://gamebanana.com/skins/170506", 
    "version": "1.1"
}
