{
    "author": "Ravage656", 
    "category": "music", 
    "description": "My second custom kart sound. The sound used is from mario party 5's super duel mode. Credit to Nintendo for the original audio.", 
    "license": "CC", 
    "title": "Standard Kart Engine Sound", 
    "url": "https://gamebanana.com/sounds/44396", 
    "version": "1.0"
}
