{
    "author": "Ravage656", 
    "category": "track", 
    "description": "I was never too crazy about the original having such a bland road, so this is my version of it. Includes new lighting. Credit to BluGoku for importing the textures.", 
    "license": "CC", 
    "title": "N64 Rainbow Road (Hexagons)", 
    "url": "https://gamebanana.com/textures/5454", 
    "version": "1.0"
}
