{
    "author": "Ravage656", 
    "category": "music", 
    "description": "My third custom engine sound. these sounds are from the G.U.N. truck from Sonic Generations. Credit to SEGA for the original audio.", 
    "license": "CC", 
    "title": "GLA Engine Sound", 
    "url": "https://gamebanana.com/sounds/44397", 
    "version": "1.0"
}
